1 10 20
100 200 125
201 210 89
900 1000 174
2500 3000 217
5000 5150 179
10 1 20
1 1 1
4 1 8
3 3 8
1 1000 179
200 400 144
650 500 145
1700 1400 180
8900 8900 141
8383 8900 216
200 200 27
201 200 27
500 5000 238
390 2804 209
3690 5800 238
100 200 125
200 300 128
400 600 142
1000 3000 217
1500 2500 209
1750 2250 183
2000 2000 113
4000 2000 238
20 40 112
100 40 119
10000 10000 30
2080 3080 217
2090 3090 217
2000 2021 144
1972 2021 144
3004 3000 142
2 1 2
200 408 144
5000 1000 238
3089 3028 155
3408 4508 238
3240 2490 217
2409 4359 238
4060 4500 215
4608 5608 236
4598 3420 238
248 249 110
23 350 144
4650 3045 238
23 450 144
240 340 144
34 340 144
340 530 142
350 690 145
235 504 144
2409 5640 238
1230 3400 217
2464 3509 217
3254 4508 238
13 4560 238
46 234 128
3 5 8
45 35 110
5 5 6
530 530 124
530 3650 217
3450 3506 181
3508 4608 238
3450 350 217
3506 3509 57
2408 3508 217
3508 3508 57
3523 3420 181
9983 9999 180
9999 9999 92
9999 10000 92
9876 5432 262
1234 5678 238
6498 3985 262
9898 8989 260
8888 9999 260
9854 398 262
45 49 105
424 450 116
579 460 142
249 1345 182
5698 5798 174
2498 5709 238
2508 4608 238
8090 4698 262
4082 4398 215
6087 7089 262
34 46 110
35 70 113
460 462 129
504 900 179
25 40 112
450 600 142
640 690 145
560 560 18
6590 6509 213
144 169 117
240 360 144
1 35 112
35 50 110
540 679 145
